com\locadora\crud\example\service\LocadoraService.class
com\locadora\crud\example\repository\PessoaRepository.class
com\locadora\crud\example\SpringBootCrudExample2Application.class
com\locadora\crud\example\entity\Pessoa.class
com\locadora\crud\example\repository\AlugarRepository.class
com\locadora\crud\example\controller\LocadoraController.class
com\locadora\crud\example\entity\Alugar.class
